[
  {
    "id": "twitter-api-mock",
    "description": "Mock Twitter API responses",
    "httpRequest": {
      "method": "GET",
      "path": "/2/users/me/tweets"
    },
    "httpResponse": {
      "statusCode": 200,
      "headers": {
        "Content-Type": ["application/json"]
      },
      "body": {
        "data": [
          {
            "id": "1234567890123456789",
            "text": "Just launched my new social media platform! 🚀 #SocialCircle #Phoenix",
            "created_at": "2024-01-15T10:30:00.000Z",
            "author_id": "987654321",
            "public_metrics": {
              "retweet_count": 42,
              "like_count": 128,
              "reply_count": 15
            }
          },
          {
            "id": "1234567890123456788",
            "text": "Working on some cool analytics features for social media management 📊",
            "created_at": "2024-01-14T15:45:00.000Z",
            "author_id": "987654321",
            "public_metrics": {
              "retweet_count": 23,
              "like_count": 89,
              "reply_count": 7
            }
          }
        ],
        "meta": {
          "result_count": 2,
          "next_token": "next_page_token_here"
        }
      }
    }
  },
  {
    "id": "facebook-api-mock",
    "description": "Mock Facebook API responses",
    "httpRequest": {
      "method": "GET",
      "path": "/v18.0/me/posts"
    },
    "httpResponse": {
      "statusCode": 200,
      "headers": {
        "Content-Type": ["application/json"]
      },
      "body": {
        "data": [
          {
            "id": "123456789_987654321",
            "message": "Excited about the future of social media aggregation!",
            "created_time": "2024-01-15T12:00:00+0000",
            "likes": {
              "summary": {
                "total_count": 45
              }
            },
            "comments": {
              "summary": {
                "total_count": 8
              }
            }
          }
        ],
        "paging": {
          "next": "https://graph.facebook.com/v18.0/me/posts?access_token=token&limit=25&after=cursor"
        }
      }
    }
  }
]